…
In [2]: for table in result.sql('show tables').fetchall():
   ...:     print(table[0])
   ...:     table = table[0].replace('"', '""')
   ...:     print(result.sql(f'select * from "{table}"'))
   ...:

In [3]: pattern
Out[3]: 'I, \\[(.+) #6\\]  INFO -- : \\[(.+)\\]   Rendered (.+) within layouts\\/application \\(Duration: (.+)ms \\| Allocations: (.+)\\)'

In [4]: result.sql(f"select * from '{pattern}' limit 10")
Out[4]:
^\[(.*?)\] \[(.*?)\] \[client (.*?)\] (.*?): (.*?)$
┌──────────────────────────┬─────────┬─────────────────┬───────────────────────────────────┬────────────────┐
│            c0            │   c1    │       c2        │                c3                 │       c4       │
│         varchar          │ varchar │     varchar     │              varchar              │    varchar     │
├──────────────────────────┼─────────┼─────────────────┼───────────────────────────────────┼────────────────┤
│ Sun Dec 04 05:15:09 2005 │ error   │ 222.166.160.184 │ Directory index forbidden by rule │ /var/www/html/ │
│ Sun Dec 04 07:45:45 2005 │ error   │ 63.13.186.196   │ Directory index forbidden by rule │ /var/www/html/ │
│ Sun Dec 04 08:54:17 2005 │ error   │ 147.31.138.75   │ Directory index forbidden by rule │ /var/www/html/ │
│ Sun Dec 04 09:35:12 2005 │ error   │ 207.203.80.15   │ Directory index forbidden by rule │ /var/www/html/ │
│ Sun Dec 04 10:53:30 2005 │ error   │ 218.76.139.20   │ Directory index forbidden by rule │ /var/www/html/ │
│ Sun Dec 04 11:11:07 2005 │ error   │ 24.147.151.74   │ Directory index forbidden by rule │ /var/www/html/ │
│ Sun Dec 04 11:33:18 2005 │ error   │ 211.141.93.88   │ Directory index forbidden by rule │ /var/www/html/ │
│ Sun Dec 04 11:42:43 2005 │ error   │ 216.127.124.16  │ Directory index forbidden by rule │ /var/www/html/ │
│ Sun Dec 04 12:33:13 2005 │ error   │ 208.51.151.210  │ Directory index forbidden by rule │ /var/www/html/ │
│ Sun Dec 04 13:32:32 2005 │ error   │ 65.68.235.27    │ Directory index forbidden by rule │ /var/www/html/ │
│            ·             │   ·     │      ·          │                 ·                 │       ·        │
│            ·             │   ·     │      ·          │                 ·                 │       ·        │
│            ·             │   ·     │      ·          │                 ·                 │       ·        │
│ Mon Dec 05 06:36:59 2005 │ error   │ 221.232.178.24  │ Directory index forbidden by rule │ /var/www/html/ │
│ Mon Dec 05 09:09:48 2005 │ error   │ 207.12.15.211   │ Directory index forbidden by rule │ /var/www/html/ │
│ Mon Dec 05 10:26:39 2005 │ error   │ 141.153.150.164 │ Directory index forbidden by rule │ /var/www/html/ │
│ Mon Dec 05 10:28:44 2005 │ error   │ 198.232.168.9   │ Directory index forbidden by rule │ /var/www/html/ │
│ Mon Dec 05 10:48:48 2005 │ error   │ 67.166.248.235  │ Directory index forbidden by rule │ /var/www/html/ │
│ Mon Dec 05 14:11:43 2005 │ error   │ 141.154.18.244  │ Directory index forbidden by rule │ /var/www/html/ │
│ Mon Dec 05 16:45:04 2005 │ error   │ 216.216.185.130 │ Directory index forbidden by rule │ /var/www/html/ │
│ Mon Dec 05 17:31:39 2005 │ error   │ 218.75.106.250  │ Directory index forbidden by rule │ /var/www/html/ │
│ Mon Dec 05 19:00:56 2005 │ error   │ 68.228.3.15     │ Directory index forbidden by rule │ /var/www/html/ │
│ Mon Dec 05 19:14:09 2005 │ error   │ 61.220.139.68   │ Directory index forbidden by rule │ /var/www/html/ │
├──────────────────────────┴─────────┴─────────────────┴───────────────────────────────────┴────────────────┤
│ 32 rows (20 shown)                                                                              5 columns │
└───────────────────────────────────────────────────────────────────────────────────────────────────────────┘

^\[(.*?)\] \[notice\] workerEnv\.init\(\) ok (.*?)$
┌──────────────────────────┬─────────────────────────────────────┐
│            c0            │                 c1                  │
│         varchar          │               varchar               │
├──────────────────────────┼─────────────────────────────────────┤
│ Mon Dec 05 19:15:57 2005 │ /etc/httpd/conf/workers2.properties │
│ Mon Dec 05 19:14:11 2005 │ /etc/httpd/conf/workers2.properties │
│ Mon Dec 05 19:11:04 2005 │ /etc/httpd/conf/workers2.properties │
│ Mon Dec 05 19:00:54 2005 │ /etc/httpd/conf/workers2.properties │
│ Mon Dec 05 19:00:44 2005 │ /etc/httpd/conf/workers2.properties │
│ Mon Dec 05 19:00:44 2005 │ /etc/httpd/conf/workers2.properties │
│ Mon Dec 05 18:56:04 2005 │ /etc/httpd/conf/workers2.properties │
│ Mon Dec 05 18:56:04 2005 │ /etc/httpd/conf/workers2.properties │
│ Mon Dec 05 18:50:31 2005 │ /etc/httpd/conf/workers2.properties │
│ Mon Dec 05 18:45:53 2005 │ /etc/httpd/conf/workers2.properties │
│            ·             │                  ·                  │
│            ·             │                  ·                  │
│            ·             │                  ·                  │
│ Sun Dec 04 04:52:49 2005 │ /etc/httpd/conf/workers2.properties │
│ Sun Dec 04 04:52:12 2005 │ /etc/httpd/conf/workers2.properties │
│ Sun Dec 04 04:52:12 2005 │ /etc/httpd/conf/workers2.properties │
│ Sun Dec 04 04:52:12 2005 │ /etc/httpd/conf/workers2.properties │
│ Sun Dec 04 04:51:52 2005 │ /etc/httpd/conf/workers2.properties │
│ Sun Dec 04 04:51:52 2005 │ /etc/httpd/conf/workers2.properties │
│ Sun Dec 04 04:51:14 2005 │ /etc/httpd/conf/workers2.properties │
│ Sun Dec 04 04:51:14 2005 │ /etc/httpd/conf/workers2.properties │
│ Sun Dec 04 04:51:14 2005 │ /etc/httpd/conf/workers2.properties │
│ Sun Dec 04 04:47:44 2005 │ /etc/httpd/conf/workers2.properties │
├──────────────────────────┴─────────────────────────────────────┤
│ 569 rows (20 shown)                                  2 columns │
└────────────────────────────────────────────────────────────────┘
…
